<?xml version="1.0" encoding="utf-8"?>
<!-- Generator: Adobe Illustrator 22.1.0, SVG Export Plug-In . SVG Version: 6.00 Build 0)  -->
<svg version="1.1" id="Layer_1" xmlns="http://www.w3.org/2000/svg" xmlns:xlink="http://www.w3.org/1999/xlink" x="0px" y="0px"
	 viewBox="0 0 160 160" style="enable-background:new 0 0 160 160;" xml:space="preserve">
<style type="text/css">
	.st0{fill:none;stroke:#000000;stroke-width:4;stroke-miterlimit:10;}
</style>
<g>
	<circle class="st0" cx="80" cy="80" r="78"/>
</g>
<title>lobby</title>
<path d="M56.4,71.7h15.1c-0.1-1.3-0.2-2.6-0.2-3.9c-0.1-2.9-0.3-5.9-0.3-8.8c0-2.6,1.3-4.7,3.5-6.2s4.6-2.4,7.1-3.2
	c0.7-0.2,1.4,0.1,1.9,0.6c3,3,6,6.1,9.1,9.1c1.1,1.1,2.2,2.3,3.4,3.4c1.8-1.8,3.5-3.5,5.2-5.2c2.4-2.4,4.8-4.8,7.2-7.3
	c0.7-0.7,1.4-0.9,2.3-0.5c2,0.8,4,1.5,5.9,2.5c2.9,1.5,4.4,4.1,4.4,7.3c0,2.5-0.2,5.1-0.3,7.6c-0.1,1.5-0.2,3-0.3,4.5h10.9
	c1.7,0,2.3,0.6,2.3,2.2v52.1c0,1.6-0.6,2.3-2.3,2.3H23.2c-1.6,0-2.2-0.6-2.2-2.2V74c0-1.6,0.6-2.2,2.2-2.2h11.4c0.2,0,0.4,0,0.6,0
	 M24.6,124.7H130V75.4H24.6L24.6,124.7z M75,71.7h41.8c0.1-1.7,0.2-3.3,0.3-4.9c0.1-2,0.3-3.9,0.3-5.9c0-2.1-0.7-3.9-2.4-5.2
	c-1.3-1-2.8-1.7-4.4-2.2c-0.2,0-0.4,0.1-0.6,0.2c-0.7,0.7-1.4,1.4-2.2,2.2c-3.5,3.5-6.9,6.9-10.4,10.4c-1.1,1.1-2,1.1-3.1,0L93.1,65
	c-3.7-3.7-7.5-7.5-11.2-11.2c-0.2-0.2-0.4-0.2-0.7-0.2c-1.2,0.5-2.4,1.1-3.6,1.7c-1.7,0.9-2.8,2.6-3,4.5c-0.1,0.8-0.1,1.6-0.1,2.3
	C74.6,65.3,74.8,68.5,75,71.7z M39,71.7h13.7"/>
<path d="M95.7,18.4c8.2-0.1,14.9,6.6,14.9,14.7c0.1,8.2-6.6,14.9-14.7,14.9c-0.1,0-0.2,0-0.4,0c-8.1,0-14.7-6.8-14.7-14.9
	C80.9,24.9,87.5,18.3,95.7,18.4z M96,44.4c6.5-0.4,11.3-5.6,10.9-12c-0.4-6.2-5.8-10.9-12.2-10.5c-6,0.4-10.7,5.8-10.3,11.9
	C84.8,39.9,89.9,44.7,96,44.4L96,44.4z"/>
<path d="M90,49.3l5.9,3.1L90,55.6V49.3z"/>
<path d="M95.9,52.4l5.9-3.2v6.3L95.9,52.4z"/>
<rect x="29.8" y="67.6" width="32.1" height="5.5"/>
<rect x="24.1" y="114.8" width="107.3" height="4.1"/>
</svg>
